…
keys %>% 
  mutate(df_assigned = assigned_data) -> keys_assigned
```

Test function with one set of variables first.

``` r
fit_metalearner(keys_assigned$df_assigned[[1]], keys_assigned$learner[[1]], keys_assigned$n_train[[1]])
```

    ## # A tibble: 214 × 25
    ##    description     tr soil_carbon_initial soil_carbon_0 soil_carbon_1
    ##    <chr>        <dbl>               <dbl>         <dbl>         <dbl>
    ##  1 201825214120     0                44.6          49.2          46.0
    ##  2 202025021060     0                54.2          77.5          59.9
    ##  3 201830561100     0                65.5          62.6          58.3
    ##  4 201730252100     0                65.1          61.6          63.7
    ##  5 201820451100     0                76.8         111.           87.3
    ##  6 202040134040     0                66.1          63.7          59.5
    ##  7 201845652040     0               108.          110.          105. 
    ##  8 201935174102     0                94.6          77.0          80.5
    ##  9 202036274050     0                55.7          57.7          50.4
    ## 10 202030564150     0                65.6          68.4          64.1
    ## # ℹ 204 more rows
    ## # ℹ 20 more variables: soil_carbon_obs <dbl>, soil_moist_code <int>,
    ## #   altitude <int>, mat <dbl>, map <dbl>, ditch <int>, no_of_stems <dbl>,
    ## #   volume_pine <dbl>, volume_spruce <dbl>, volume_birch <dbl>,
    ## #   volume_aspen <dbl>, volume_oak <dbl>, volume_beech <dbl>,
    ## #   volume_southern_broadleaf <dbl>, volume_larch <dbl>, cate_s_learn <dbl>,
    ## #   cate_real <dbl>, diff <dbl>, ost_wgs84 <dbl>, nord_wgs84 <dbl>
…
