…
Ok, there are 29 or 28 entries per `PlotNr` so that can’t be a unique
plot ID, let’s try `ID`

``` r
plot_data %>% 
  summarise(n_years = n_distinct(Year), .by = "ID")
```

    ## # A tibble: 2,936 × 2
    ##         ID n_years
    ##      <dbl>   <int>
    ##  1 8.32e16       3
    ##  2 8.32e16       3
    ##  3 8.32e16       3
    ##  4 8.32e16       3
    ##  5 8.32e16       3
    ##  6 8.32e16       3
    ##  7 8.32e16       3
    ##  8 8.32e16       3
    ##  9 8.32e16       3
    ## 10 8.32e16       3
    ## # ℹ 2,926 more rows

Yep, that looks better. 3 years per `ID`. Maybe we could use years to
split the data up into test and train.

Let’s check that we only have 1 year for each of the `uniqueID` values.

``` r
plot_data %>% 
  summarise(n_years = n_distinct(Year), .by = "uniqueID")
```

    ## # A tibble: 20,189 × 2
    ##    uniqueID                             n_years
    ##    <chr>                                  <int>
    ##  1 98038783-C8A5-4662-BA6A-E02FEBAD36FD       1
    ##  2 CE021632-D82F-496E-B9EA-0830FBB3057B       1
    ##  3 C97234A5-ACBD-40EB-B1CC-CD2D8AAA3CF3       1
    ##  4 6D4B49EF-080C-4D72-BAA2-14E236ED9974       1
    ##  5 B5F0BD22-C7C4-401E-9CDF-2713B347E902       1
    ##  6 3542F0F9-327C-464D-B840-5359940CCB88       1
    ##  7 6AF20BB4-ABE0-4A0A-BCBE-5AACD439E13D       1
    ##  8 6850C4EB-6D19-4094-BA71-6348A97027D9       1
    ##  9 35405075-7E4A-4C4D-8070-B9202B4DACF2       1
    ## 10 058CF39D-729D-4965-97D9-D2365A37F23E       1
    ## # ℹ 20,179 more rows
…
``` r
man_data_time %>% 
  group_by(ID) %>% 
  arrange(MedYrAgo, .by_group = TRUE) %>%
  summarise(CodeAction = str_c(CodeAction, collapse = ", "), 
            .groups = "drop") ->  man_hists

man_hists %>%   
  summarise(n = n(), .by = CodeAction) %>% 
  arrange(-n) 
```

    ## # A tibble: 1,065 × 2
    ##    CodeAction     n
    ##    <chr>      <int>
    ##  1 22           325
    ##  2 <NA>         271
    ##  3 43           180
    ##  4 31           164
    ##  5 21           126
    ##  6 22, 22        78
    ##  7 11            76
    ##  8 33            44
    ##  9 31, 22        36
    ## 10 43, 22        33
    ## # ℹ 1,055 more rows
…
